{
  "name": "schedule",
  "version": "0.1.0",
  "description": "",
  "title": "",
  "url": "",
  "sampleUrl": false,
  "defaultVersion": "0.0.0",
  "apidoc": "0.3.0",
  "generator": {
    "name": "apidoc",
    "time": "2017-04-16T07:39:54.350Z",
    "url": "http://apidocjs.com",
    "version": "0.17.5"
  }
}
